{
	"realsimple": {
		"HomePage.Logo": "//div[@class='c-header__logo']//a",
		"HomePage.BurgerMenu": "//button[@class='o-header-btn--menu js-header-btn-menu fa fa-bars']",
		"HomePage.BurgerMenu.CategoryDropdownButton": "//li[@class='c-main-nav__menu-item js-menu-item has-submenu']//i",
		"HomePage.BurgerMenu.CategorySubmenu": "//ul[@class='c-main-nav__submenu js-main-nav-submenu']//li//a[not (contains(@href,'#'))]",
		"HomePage.BurgerMenu.CategoryMenu": "//li[@class='c-main-nav__menu-item js-menu-item has-submenu']",
		"HomePage.BurgerMenu.CategoryMenuTitle": "//li[@class='c-main-nav__menu-item js-menu-item has-submenu']//a[@class='js-header-submenu-toggle']",
		"HomePage.BurgerMenu.Backsite": "//li[@class='c-main-nav__menu-item--back-to-site js-menu-item']//a",
		"HomePage.BurgerMenu.ShareTools.Facebook": "//a[contains(@href,'https://www.facebook.com')]//i",
		"HomePage.BurgerMenu.ShareTools.Twitter": "//a[contains(@href,'https://twitter.com')]//i",
		"HomePage.BurgerMenu.ShareTools.Instagram": "//a[contains(@href,'http://instagram.com')]//i",
		"HomePage.BurgerMenu.ShareTools.Pinterest": "//a[contains(@href,'http://pinterest.com/')]//i",
		"HomePage.BurgerMenu.ShareTools": "//li[@class='c-main-nav__menu-item--social js-menu-item']//a",
		"HomePage.TopCategory": "//nav[@class='c-header__secondary-nav']//ul//li/a",
		"HomePage.Footer.Logo": "//*[@class='logo']//img",
		"HomePage.Footer.Copyright": "//*[@class='copyright']",
		"HomePage.Footer.Facebook": "//a[@href='https://www.facebook.com/realsimple/']",
		"HomePage.Footer.Instagram": "//a[@href='https://instagram.com/real_simple']",
		"HomePage.Footer.Twitter": "//footer//a[@href='https://twitter.com/realsimple']",
		"HomePage.Footer.pinterest": "//footer//a[@href='https://pinterest.com/realsimple']",
		"HomePage.categoryhomepagae": "//nav[@class='c-header__secondary-nav']//ul[@role='navigation']/li[2]/a",
		"HomePage.rootBreadcrumb": "//li[@class='c-breadcrumb__item--root']//a",
		"HomePage.breadCrumb": "//li[@class='c-breadcrumb__item--curr-pg']",
		"HomePage.Topcategoriesselectedtitle": "//div[@class='header']/h1",
		"HomePage.categorylisting": "//*[@class='category-section-container']/div[1]//*[@class='c-category-section__title']",
		"HomePage.categorylisting.breadcrumb": "//*[@class='c-breadcrumb js-breadcrumb']//li[3]//span",
		"HomePage.categorylisting.title": "//div[@class='header']/h1",
		"HomePage.Burger.Brands": "//a[contains(text(), 'Brands')]",
		"HomePage.Burger.Stores": "//a[contains(text(), 'Stores')]",
		"HomePage.categorypagemenu": "//nav[@class='c-header__secondary-nav']//a[contains(text(),'Beauty')]",
		"HomePage.ProductDetail.ShopBy": "//ul/li[2]/a[@class='c-left-nav__link-level2']",
		"HomePage.ProductDetail.ProductPage": "//div[@class='product-container js-product-container clearfix']/div[1]//div[@class='c-product-card__product-info']//div[3]/a[1]",
		"HomePage.categoryDetail.WhatToBuy": "//li[1]//a[@class='c-left-nav__link-level1']",
		"HomePage.categoryDetail.MoreCategoryButton": "//div[@class='more-content']//a[contains(text(),'Discover')]",
		"HomePage.searchtext": "//input[@type='text']",
		"HomePage.searchButtonMobile": "//button[@aria-label='search']",
		"HomePage.searchButton": "//button[@type='submit']",
		"HomePage.categoryDetail.SeeAllArticleButton": "//div[@class='more-content']//a[contains(text(),'See All Articles')]",
		"HomePage.categoryDetail.SeeAllArticle.Title": "//div[@class='content-title c-seo-content-card--hero__title']//h3",
		"HomePage.categoryDetail.SeeAllArticle.image": "//div[contains(@class, 'seo-content-card col-sm-12')]//div[contains(@class, 'content-image')]/*",
		"HomePage.categoryDetail.SeeAllArticle.List": "//div[@class='c-left-nav__section--content']//ul//li",
		"HomePage.Topcategoriestitle": "//div[@class='top-category-title']//span",
		"HomePage.Topcategorieslist": "//div[@class='top-categories']//div[@id='card-container']/div//div/h3[contains(@class, 'c-category-card__title')]/a",
		"HomePage.ScrollTop": "//i[@class='fa fa-angle-up fa-2x']",
		"HomePage.carousel.heroImage.leftArrow": "//div[@class='c-hero-carousel__control']/a[@data-slide='prev']",
		"HomePage.carousel.heroImage.rightArrow": "//div[@class='c-hero-carousel__control']/a[@data-slide='next']",
		"HomePage.carousel.inactiveHeroItem": "//div[@class='c-hero-carousel__item item js-hero-carousel-item']",
		"HomePage.carousel.activeHeroItem": "//div[@class='c-hero-carousel__item item js-hero-carousel-item active']",
		"HomePage.carousel.activeHeroItem.carouselCaption": "//div[@class='c-hero-carousel__item item js-hero-carousel-item active']//h1/span",
		"HomePage.carousel.activeHeroItem.carouselSubTitle": "//div[@class='c-hero-carousel__item item js-hero-carousel-item active']//p/span",
		"HomePage.carousel.activeHeroItem.shopNowButton": "//div[@class='c-hero-carousel__item item js-hero-carousel-item active']//a[@class='btn btn-primary-action'][contains(text(),'shop now')]",
		"HomePage.topbrandsheader.title": "//div[@class='row c-featured-brands']//h2/span",
		"HomePage.topbrandsheader.categoryCard": "//div[@class='row c-featured-brands']//div[contains(@class,'card featured brand')]",
		"HomePage.topbrandsheader.categoryCard.categoryTitle": "//div[@class='row c-featured-brands']//div[contains(@class,'card featured brand')]/a/img",
		"HomePage.topstoresheader.title": "//div[@class='row c-featured-stores']//h2/span",
		"HomePage.topstoresheader.categoryCard": "//div[@class='row c-featured-stores']//div[contains(@class,'card featured store')]",
		"HomePage.topstoresheader.categoryCard.categoryTitle": "//div[@class='row c-featured-stores']//div[contains(@class,'card featured store')]/a/img",
		"pagination": "(//ul[@class='pagination']//a)",
		"pagination.letfarrow": "//ul[@class='pagination']/li[1]//i",
		"pagination.rightarrow": "//ul[@class='pagination']//i[@class='fa fa-chevron-right']",
		"pagination.page2.active": "//ul[@class='pagination']//li[@class='active ']/a[contains(text(), '2')]",
		"pagination.page1.active": "//ul[@class='pagination']//li[@class='active ']/a[contains(text(), '1')]",
		"HomePage.categorylisting.LeftNavigationPane": "//div[@class='c-left-nav']",
		"HomePage.categorylisting.Navigation": "(//div[@class='title']//a)[1]",
		"HomePage.categorylisting.leftNavigationPane.shopBy": "//div[@class='c-left-nav']/h3[normalize-space()='Shop By']",
		"HomePage.categoryHomepage.LeftNavigationPane.CategoryName": "//a[@class='c-left-nav__link-level1 selected']",
		"HomePage.categorylisting.CategoriesHeaders": "//div[@class='c-category-section']//div[@class='c-category-section__title']/h4/a",
		"HomePage.categoryHomepage.CategoryDependency.Subcategories": "//div[@class='c-category-section__title']//a",
		"HomePage.categorylisting.withoutCategoryDependency.Subcategories": "//div[@class='c-category-section__children ']//li/a",
		"HomePage.categorylisting.categories.morePlusLink":"//div[@class='c-category-section__title']/h4[normalize-space()=\"%s\"]/../../div[@class='c-category-section__children ']/div",
		"HomePage.categorylisting.categories.Subcategories": "//div[@class='c-category-section__title']/h4[normalize-space()=\"%s\"]/../../div[@class='c-category-section__children ']//li",
		"HomePage.categorylisting.SubCategorislist": "//ul[@class='c-left-nav__tree-level2 qa-cat-list-depth2']//li",
		"HomePage.categorylisting.categories.popupPane": "//div[@class='modal-content']",
		"HomePage.categorylisting.categories.popupPane.additionalSubcategories": "//h4[@id='category-modal-title'][normalize-space()='Additional Sub-Categories']",
		"HomePage.categorylisting.categories.popupPane.subcategories": "//div[@class='modal-body js-modal-category-list']//li/a",
		"HomePage.categorylisting.categories.popupPane.xButton": "//div[@class='modal-header']/button[@class='close']",
		"HomePage.categorylisting.categories.popupPane.closeButton": "//div[@class='modal-footer']/button[normalize-space()='Close']",
		"HomePage.categorylisting.breadCrumbTitle.notLastNode": "//li[@itemprop='itemListElement']//span[normalize-space()=\"%s\"]",
		"HomePage.categorylisting.categoryBreadCrumb": "(//li[@class='c-breadcrumb__item']//span)[1]",
		"HomePage.categorylisting.currentBreadCrumb": "//li[@class='c-breadcrumb__item--curr-pg']//a/span",
		"HomePage.categorylisting.leftNavigation.firstLevelCategoryTitle": "//a[contains(@class,'c-left-nav__link-level1')]",
		"HomePage.categorylisting.leftNavigation.finalCategorySelected": "//ul//li[(contains(@class,'selected js-selected'))]/a[contains(@class,'selected')]",
		"HomePage.categorylisting.leftNavigation.links.categoriesUnderActiveCategory": "//ul[contains(@class,'c-left-nav__tree')]//ul//a",
		"HomePage.categorylisting.leftNavigation.moreplusButtonUnderCategories": "//ul[contains(@class,'c-left-nav__tree')]//ul//li[not(contains(@class,'selected js-selected'))]/a[contains(@class,'top-cat-more')]",
		"HomePage.categorylisting.hiddenModalPopupPane.categories": "//div[@class='modal fade']//div[@class='modal-body']//div[@class='category-name']//li[@class='category-list']",
		"HomePage.categorylisting.visibleModalPopupPane.categories": "//div[@class='modal fade in']//div[@class='modal-body']//div[@class='category-name']//li[@class='category-list']/a",
		"HomePage.categorylisting.modalPopupPane.titleHeader": "//div[@class='modal fade in']//div[@class='modal-header']/h3",
		"HomePage.categorylisting.modalPopupPane.cancelButton": "//div[@class='modal fade in']//div[@class='modal-footer']//input[@value='cancel']",
		"HomePage.categorylisting.leftNavigation.saleHeader": "//li[@id='filter-sale']/h4",
		"HomePage.categorylisting.leftNavigation.saleRadioButton": "//li[@id='filter-sale']//input",
		"HomePage.categorylisting.leftNavigation.saleRadioButtonText": "//li[@id='filter-sale']//label[@class='c-left-nav__filter-row']",
		"HomePage.categorylisting.leftNavigation.saleRadioButtonCount": "//li[@id='filter-sale']//label[@class='c-left-nav__filter-row']/span",
		"HomePage.categorylisting.leftNavigation.priceHeader": "//li[@id='filter-price']/h4",
		"HomePage.categorylisting.leftNavigation.priceRadioButton": "//li[@id='filter-price']//label[@class='c-left-nav__filter-row']/input",
		"HomePage.categorylisting.leftNavigation.priceRadioButtonText": "//li[@id='filter-price']//label[@class='c-left-nav__filter-row']",
		"HomePage.categorylisting.leftNavigation.priceRadioButtonCount": "//li[@id='filter-price']//label[@class='c-left-nav__filter-row']/span",
		"HomePage.categorylisting.leftNavigation.priceMinTxtBox": "//li[@id='filter-price']//label[contains(@class,'c-left-nav__filter-row--price-range qa-filter-price-range hide-for-mobile')]/input[@aria-label='Minimum Price']",
		"HomePage.categorylisting.leftNavigation.priceMaxTxtBox": "//li[@id='filter-price']//label[contains(@class,'c-left-nav__filter-row--price-range qa-filter-price-range hide-for-mobile')]/input[@aria-label='Maximum Price']",
		"HomePage.categorylisting.leftNavigation.priceGoButton": "//li[@id='filter-price']//label[contains(@class,'c-left-nav__filter-row--price-range qa-filter-price-range hide-for-mobile')]/button",
		"HomePage.categorylisting.leftNavigation.oursOrEditorsChoiceCount": "//label[@class='c-left-nav__filter-row']/input[@id='ec-filter']/../span",
		"HomePage.categorylisting.leftNavigation.oursOrEditorsChoiceHeaderRadioButton": "//label[@class='c-left-nav__filter-row']/input[@id='ec-filter']",
		"HomePage.categorylisting.leftNavigation.ourPicksOnProductCard": "//div[@class='c-product-card__editor-seal qa-product-card-is-ec']",
		"HomePage.categorylisting.leftNavigation.ourPicksOrEditorsChoiceFilterXButton": "//li[@class='c-breadcrumb__item--filter']/a/span[contains(text(),'Choice')]//../i",
		"HomePage.categorylisting.leftNavigation.brandHeader": "//li[@id='filter-brand']/h4",
		"HomePage.categorylisting.leftNavigation.brandRadioButton": "//li[@id='filter-brand']//label[@class='c-left-nav__filter-row']/input",
		"HomePage.categorylisting.leftNavigation.brandRadioButtonText": "//li[@id='filter-brand']//label[@class='c-left-nav__filter-row']",
		"HomePage.categorylisting.leftNavigation.selectedActiveBrandRadioButtonText": "//li[@id='filter-brand']//input[@checked='checked']/parent::label",
		"HomePage.categorylisting.leftNavigation.brandRadioButtonCount": "//li[@id='filter-brand']//label[@class='c-left-nav__filter-row']/span",
		"HomePage.categorylisting.leftNavigation.brandMorePlusButton": "//li[@id='filter-brand']//span/a",
		"HomePage.categorylisting.leftNavigation.topBrandsHeader": "//li[@id='filter-top-brands']/h4",
		"HomePage.categorylisting.leftNavigation.linksUnderTopBrands": "//li[@id='filter-top-brands']/span/a",
		"HomePage.categorylisting.leftNavigation.storeHeader": "//li[@id='filter-store']/h4",
		"HomePage.categorylisting.leftNavigation.storeRadioButton": "//li[@id='filter-store']//label[@class='c-left-nav__filter-row']/input",
		"HomePage.categorylisting.leftNavigation.storeRadioButtonText": "//li[@id='filter-store']//label[@class='c-left-nav__filter-row']",
		"HomePage.categorylisting.leftNavigation.storeRadioButtonCount": "//li[@id='filter-store']//label[@class='c-left-nav__filter-row']/span",
		"HomePage.categorylisting.leftNavigation.storeMorePlusButton": "//li[@id='filter-store']//span/a",
		"HomePage.categorylisting.leftNavigation.clearAllButton": "//li[@class='c-left-nav__clear-all']//a[normalize-space()='Clear all']",
		"HomePage.categorylisting.filterBreadCrumbText": "//li[@class='c-breadcrumb__item--filter']/a/span",
		"HomePage.categorylisting.filterBreadCrumbXButton": "//li[@class='c-breadcrumb__item--filter']/a/span[contains(text(),\"%s\")]//../i",
		"HomePage.categorylisting.filterBreadCrumbXButtonWithoutTitle": "//li[contains(@class,'c-breadcrumb__item')]//i",
		"HomePage.categorylisting.morePlus.activepopupWindow": "//div[@class='modal fade js-filter-modal in']//div[@class='modal-dialog filter-box']",
		"HomePage.categorylisting.morePlus.popupWindowTitle": "//div[@class='modal fade js-filter-modal in']//div[@class='modal-header']/h3",
		"HomePage.categorylisting.morePlus.popupWindow.searchBox": "//div[@class='modal fade js-filter-modal in']//div[@class='modal-body']//label[contains(text(),'Search a %s:')]/../input[@type='text']",
		"HomePage.categorylisting.morePlus.popupWindow.searchIcon": "//div[@class='modal fade js-filter-modal in']//div[@class='modal-body']//label[contains(text(),'Search a %s:')]/../input[@type='button']",
		"HomePage.categorylisting.morePlus.popupWindow.subcategoryOptions": "//div[@class='modal fade js-filter-modal in']//div[@class='modal-body']//div[@id='%s-options']//div[contains(@class,'topItems')]//label",
		"HomePage.categorylisting.morePlus.popupWindow.subcategoryOptionsAfterSearch": "//div[@class='modal fade js-filter-modal in']//div[@class='modal-body']//div[@id='%s-options']//div[contains(@class,'searchResults')]//label",
		"HomePage.categorylisting.morePlus.popupWindow.subcategoryTitle": "//div[@class='modal fade js-filter-modal in']//div[@class='modal-body']//div[@id='%s-options']//div[contains(@class,'topItems')]//label/span[@class='txt']",
		"HomePage.categorylisting.morePlus.popupWindow.subcategoryTitleAfterSearch": "//div[@class='modal fade js-filter-modal in']//div[@class='modal-body']//div[@id='%s-options']//div[contains(@class,'searchResults')]//label/span[@class='txt']",
		"HomePage.categorylisting.morePlus.popupWindow.subcategoryCheckbox": "//div[@class='modal fade js-filter-modal in']//div[@class='modal-body']//div[@id='%s-options']//div[contains(@class,'topItems')]//input[@type='checkbox']",
		"HomePage.categorylisting.morePlus.popupWindow.subcategoryCheckboxAfterSearch": "//div[@class='modal fade js-filter-modal in']//div[@class='modal-body']//div[@id='%s-options']//div[contains(@class,'searchResults')]//input[@type='checkbox']",
		"HomePage.categorylisting.morePlus.popupWindow.clear": "//div[@class='modal fade js-filter-modal in']//div[@class='modal-footer']//button[@id='%s-clear']",
		"HomePage.categorylisting.morePlus.popupWindow.ok": "//div[@class='modal fade js-filter-modal in']//div[@class='modal-footer']//input[@id='%s-ok']",
		"HomePage.categorylisting.morePlus.popupWindow.cancel": "//div[@class='modal fade js-filter-modal in']//div[@class='modal-footer']//input[@id='%s-cancel']",
		"HomePage.categoryDetail.printrest.List": "//div[@class='c-dimension-slider__item js-dimension-slider-item']",
		"HomePage.categoryDetail.printrest.Slideright": "//div[@class='c-dimension-slider__slide-right js-dimension-slider-control-next show']",
		"HomePage.categoryDetail.printrest.SlidePrevious": "//div[@class='c-dimension-slider__slide-left js-dimension-slider-control-prev show']",
		"HomePage.categoryDetail.subcategory.Pinterest": "//div[@class='c-dimension-slider__viewport js-dimension-slider-viewport']//div[2]",
		"HomePage.categoryDetail.subcategory.Title": "//h1[@class='page-title']|//div[@class='header']",
		"HomePage.categoryDetail.Product.FeaturedProduct": "//div[contains(@class, 'js-product-card-img-wrapper')]//div[contains(@class, 'featured-badge')]",
		"HomePage.categoryDetail.Product.EditorChoice": "//div[contains(@class, 'editor-seal qa-product-card-is-ec')]",
		"HomePage.categoryDetail.ProductListingone": "//main/div[2]/div[10]/div[2]/div[1]",
		"HomePage.categoryDetail.ProductListing.Ad": "//div[@class='c-product-ad-slot']",
		"HomePage.categoryDetail.Productsize": "//div[contains(@class, 'qa-product-card clearfix')]",
		"HomePage.categorylisting.skywordLeft": "//div[@class='related-content__container-skyword js-related-content-container-skyword']/button[1]",
		"HomePage.categorylisting.skywordRight": "//div[@class='related-content__container-skyword js-related-content-container-skyword']/button[2]",
		"HomePage.categorylisting.CAASLeft": "//div[@class='related-content--caas-slider js-related-content-container-caas']/button[1]",
		"HomePage.categorylisting.CAASRight": "//div[@class='related-content--caas-slider js-related-content-container-caas']/button[2]",
		"HomePage.categorylisting.CAASArticle": "//div[contains(@class,'c-content-card--caas js-carousel-card js-content-card-caas')][1]/a/div[2]/div/span",
		"HomePage.categorylisting.skywordArticle": "//div[contains(@class,'c-content-card--skyword js-carousel-card js-content-card-skyword')][1]/a/div[2]/div/span",
		"HomePage.categorylisting.skywordArticle1": "//div[@class='c-content-card--skyword__title']",
		"HomePage.categorylisting.skywordartilce": "//div[@class='related-content__container-skyword js-related-content-container-skyword']",
		"HomePage.categorylisting.skywordArticleTitle": "//div[@class='related-content__container-skyword js-related-content-container-skyword']//div/div[@class='c-content-card--skyword__title']/span",
		"HomePage.ContentArticleTitle": "//div[@class='curated-stories__title']//span",
		"HomePage.ContentArticle.HeroTitle": "//div[contains(@class, 'c-seo-content-card--hero')]/div//div[contains(@class, 'js-seo-content-card-title')]",
		"HomePage.ContentArticle.HeroImage": "//div[contains(@class, 'c-seo-content-card--hero')]/div//img",
		"HomePage.ArticlePage.Title": "(//div[@class='content-item ']//h1)",
		"HomePage.ContentArticle.HeroDescription": "//div[contains(@class, 'c-seo-content-card--hero')]/div//div[contains(@class, 'content-copy')]/p",
		"HomePage.ContentArticle.NonHeroTitle": "//div[contains(@class, 'c-seo-content-card')][not(contains(@class,'hero'))][@itemscope]//div[@class='content-title c-seo-content-card__title']/*",
		"HomePage.ContentArticle.NonHeroList":"//div[contains(@class, 'c-seo-content-card')][not(contains(@class,'hero'))][@itemscope]",
		"HomePage.ourEditorchoice.productLeftArrow": "//button[@aria-label='previous']",
		"HomePage.ourEditorchoice.productRightArrow": "//button[@aria-label='next']",
		"HomePage.ourEditorchoice.Title": "//h2[@class='editors-choice__title c-editors-choice-products__title col-xs-12']//span",
		"HomePage.productDetail.editorSeal": "//div[@class='editor-seal']",
		"HomePage.ourEditorchoice.productcount": "//div[contains(@class, 'product-card js-carousel-card qa-product-card')]",
		"HomePage.ourEditorchoice.productName": "//div[@class='c-product-carousel__product-wrapper js-product-wrapper js-carousel-wrapper clearfix']/div[1]//div[@class='c-product-card__inner clearfix']//div[@class='c-product-card__name']//a[1]",
		"HomePage.ourEditorchoice.productImage": "//div[@class='c-product-carousel__product-wrapper js-product-wrapper js-carousel-wrapper clearfix']/div[1]//div[@class='c-product-card__img-wrapper js-product-card-img-wrapper']",
		"HomePage.ourEditorchoice.productPrice": "//div[@class='c-product-carousel__product-wrapper js-product-wrapper js-carousel-wrapper clearfix']/div[1]//div[@class='c-product-card__inner clearfix']//div[@class='c-product-card__price']//span",
		"HomePage.ourEditorchoice.productStore": "//div[@class='c-product-carousel__product-wrapper js-product-wrapper js-carousel-wrapper clearfix']/div[1]//div[@class='c-product-card__inner clearfix']//div[@class='c-product-card__store']",
		"HomePage.ourEditorchoice.productBrand": "//div[@class='c-product-carousel__product-wrapper js-product-wrapper js-carousel-wrapper clearfix']/div[1]//div[@class='c-product-card__inner clearfix']//h2[@class='c-product-card__brand js-keyboard-target']",
		"HomePage.ourEditorchoice.productDescription": "//div[@class='c-product-carousel__product-wrapper js-product-wrapper js-carousel-wrapper clearfix']/div[1]//div[@class='c-product-card__inner clearfix']//div[@class='c-product-card__description']",
		"HomePage.ourEditorchoice.productHover": "(//button[contains(@class, 'hover-trigger js-hover-trigger')])[1]",
		"HomePage.ourEditorchoice.hoverProductName": "//div[contains(@class,'js-product-hover-card open')]//*[contains(@class, 'name')]//span",
		"HomePage.ourEditorchoice.hoverBrandName": "//div[contains(@class,'js-product-hover-card open')]//*[contains(@class, 'brand')]",
		"HomePage.ourEditorchoice.hoverPrice": "//div[contains(@class,'js-product-hover-card open')]//*[contains(@class, 'price')]",
		"HomePage.ourEditorchoice.hoverDescription": "//div[contains(@class,'js-product-hover-card open')]//*[contains(@class, 'description')]",
		"HomePage.ourEditorchoice.hoverStore": "//div[contains(@class,'js-product-hover-card open')]//*[contains(@class, 'store')]",
		"HomePage.ourEditorchoice.hoverSEEATButton": "//div[contains(@class,'js-product-hover-card open')]//*[contains(@class, 'btn-primary-action')]",
		"HomePage.categoryHomePage.heroImage": "//div[@class='inner-caption']/preceding-sibling::img",
		"HomePage.categoryHomePage.heroImageTitle": "//div[@class='inner-caption']/h2[@id='header-image-title']",
		"HomePage.categoryHomePage.heroImageDescription": "//div[@class='inner-caption']/h2[@id='header-image-title']/following-sibling::p/span",
		"HomePage.categoryHomePage.shopNowButton": "//div[@class='inner-caption']/h2[@id='header-image-title']/following-sibling::a[@class='btn btn-primary-action']",
		"HomePage.categoryHomepage.editorChoiceTitle": "//div[@class='more-products row']//h3/span",
		"HomePage.categoryHomepage.LeftNavigationPane.ArticleTitle": "//div[@class='c-left-nav']/h3[2]",
		"HomePage.categoryHomepage.LeftNavigationPane.CAASTitle": "//li[@class='c-left-nav__item-level1']/a",
		"HomePage.categoryHomepage.LeftNavigationPane.CAASTitles": "//div[contains(@class, 'c-left-nav__section')][2]//a",
		"HomePage.contentpage.CAASTitle": "//div[@id='content-item']/h1",
		"HomePage.categoryHomepage.LeftNavigationPane.AllArticles": "//div[@class='c-left-nav']/div[@class='more-content']/a",
		"HomePage.categoryHomepage.AdditionalCategories.Title": "//div[@class='cat-container']/h3",
		"HomePage.categoryHomepage.withoutAdditionalCategoryDependency.Subcategories": "//div[@class='children']//li/a",
		"HomePage.categoryHomepage.AdditionalCategoriesHeaders": "//div[@class='more-category-control']//div[@class='title']/a",
		"HomePage.categoryHomepage.AdditionalCategories.Subcategories": "//div[@class='title']/a[normalize-space()=\"%s\"]/../../div[@class='children']//li",
		"HomePage.categoryHomepage.AdditionalCategories.morePlusLink": "//div[@class='title']/a[normalize-space()=\"%s\"]/../../div[@class='children']//a[contains(text(),'more options')]",
		"ProductDetail.BrandName": "//div[@class='prod-brand c-product-detail-card__brand']",
		"ProductDetail.Title": "//div[contains(@class,'c-product-detail-card ')]//h1",
		"ProductDetail.breadcrumb": "//li[@class='c-breadcrumb__item--curr-pg']//a",
		"ProductDetail.ProductSalePrice": "//div[@class='row price-store-name']//span[@class='sale-price qa-sale-price']",
		"ProductDetail.ProductOldPrice": "//div[@class='row price-store-name']//span[@class='old-price']",
		"ProductDetail.ProducActualPrice": "//span[@itemprop='offers']//span[2]",
		"ProductDetail.ProductStore": "//div[@class='row price-store-name']//div[2]//a",
		"ProductDetail.MerchantTitle": "//div[@id='title']//h1",
		"ProductDetail.ProductFacebook": "//div[@class='jssocials-share jssocials-share-facebook']//i",
		"ProductDetail.ProductTwitter": "//i[@class='fa fa-twitter jssocials-share-logo']",
		"ProductDetail.ProductMail": "//i[@class='fa fa-at jssocials-share-logo']",
		"ProductDetail.ProductPinterest": "//i[@class='fa fa-at jssocials-share-logo']",
		"ProductDetail.ProductSoicialIcons": "//div[@class='jssocials-shares']",
		"ProductDetail.ProductSmallImages": "//div[@class='product-detail__photo--side__first product-detail__thumbnail']//img",
		"ProductDetail.ProductSeeAdditionalImages": "//div[@class='product-detail__photo--side__additional product-detail__more-images']",
		"ProductDetail.ProductDescription": "//div[@class='product-detail__description']//p",
		"ProductDetail.ProductLargeImage": "//div[contains(@class, 'product-detail__photo')]/a/img",
		"ProductDetail.UnavailableImage": "//div[@class='special-message']",
		"ProductDetail.ProductDescriptionReadMore": "//div[@data-product-list='main']//a[contains(text(),''read)]",
		"ProductDetail.ProductSEEIT": "//div[@class='row action-btn']",
		"ProductDetail.ProductSEEITButton": "//div[@class='row action-btn']//a[1]",
		"ProductDetail.ProducthoverButton": "//div[@class='product-container js-product-container clearfix']/div[1]//button[@class='c-product-card__hover-trigger js-hover-trigger']",
		"ProductDetail.ProductHoverName": "//div[@class='c-product-hover-card qa-product-hover-card js-product-hover-card open']//div[1]//div[@class='c-product-hover-card__name']//a[1]",
		"ProductDetail.ProductHoverPrice": "//div[@class='c-product-hover-card qa-product-hover-card js-product-hover-card open']//div[1]//div[@class='c-product-hover-card__price']",
		"ProductDetail.ProductHoverDescription": "//div[@class='c-product-hover-card qa-product-hover-card js-product-hover-card open']//div[1]//div[@class='c-product-hover-card__description']",
		"ProductDetail.ProductHoverDescription.ecllipse": "//div[@class='c-product-hover-card qa-product-hover-card js-product-hover-card open']//div[1]//div[@class='c-product-hover-card__description']",
		"ProductDetail.ProductHoverStore": "//div[@class='c-product-hover-card qa-product-hover-card js-product-hover-card open']//div[1]//div[@class='c-product-hover-card__store']",
		"ProductDetail.ProductHoverBrand": "//div[@class='c-product-hover-card qa-product-hover-card js-product-hover-card open']//div[1]//div[@class='c-product-hover-card__brand']",
		"ProductDetailPage.RelatedProductsTitle": "//*[@class='related-products__title']/span",
		"ProductDetailPage.RelatedProductscount": "//div[contains(@class, 'related-products__container')]/div//div[contains(@class, ' clearfix')]",
		"ProductDetailPage.ContentSkywordTitle": "//*[contains(@class, 'related-content__container-skyword')]/h2/span",
		"ProductDetailPage.SkwordSection": "//div[contains(@class, 'related-content__container-skyword')]",
		"ProductDetailPage.ContentCAASTitle": "//*[@class='related-content--caas-slider__title']/span",
		"ProductDetailPage.ShopMoreButton": "//div[@class='related-products-shop-more']/a",
		"directorypage.title": "//div[@class='header']/h1",
		"directorypage.breadcrumb": "//*[contains(@class,'c-breadcrumb__item')][2]",
		"directorypage.LeftnavigationShopBy": "//*[@class='c-left-nav__section-heading']",
		"directorypage.leftnavlinks": "//div[@class='c-left-nav__section--tree']//a",
		"directorypage.BrandorStorelink": "//*[@class='c-left-nav__link-level1']",
		"directorypage.TopBrandsorStores.title": "//div[@class='heading clearfix']",
		"directorypage.searchtext": "//div[@class='directory-search-box']//input",
		"directorypage.searchbutton": "//input[contains(@class, 'btn-search-submit')]",
		"directorypage.searchResults": "//*[@id='item-container']//ul/li[contains(@class, 'searchResults')]",
		"directorypage.alphabetlist": "//div[@class='index clearfix']//li",
		"directorypage.alphabet.searchresults": "//*[@class='item-container']//ul/li",
		"pageFooter.PLAads.iframe": "//iframe[@title='Ads by Google']",
		"pageFooter.PLAads.iframe.productCard": "//*[@id='adBlock']//div[@class='ya_ c_']",
		"pageFooter.PLAads.iframe.image": "//*[@id='adBlock']//div[@class='cb_ c_']//div[@class='eb_']",
		"pageFooter.PLAads.iframe.description": "//*[@id='adBlock']//div[@class='cb_ c_']//div[@class='gb_']",
		"pageFooter.PLAads.iframe.price": "//*[@id='adBlock']//div[@class='cb_ c_']//div[@class='hb_']",
		"pageFooter.PLAads.iframe.retailUrl": "//*[@id='adBlock']//div[@class='cb_ c_']//div[@class='kb_ lb_']",
		"pageFooter.PLAads.iframe.ad": "//*[@id='adBlock']//div[@class='cb_ c_']//*[@class='mb_ ib_ nb_']",
		"pageFooter.adsense.iframe.adFrame": "//iframe[@title='Sponsored Links']",
		"pageFooter.adsense.iframe.adFrame.adCards": "//*[@class='adD']",
		"pageFooter.adsense.iframe.adFrame.title": "//*[@class='adStd ']//a[contains(@class,'test_titleLink')]",
		"pageFooter.adsense.iframe.adFrame.ad": "//*[@class='adStd ']//span[normalize-space()='Ad']",
		"pageFooter.adsense.iframe.adFrame.adlink": "//*[@class='adStd ']//a[@class='test_domainLink e_']",
		"pageFooter.adsense.iframe.adFrame.description": "//*[@class='adStd ']//span[@class='descText']",
		"pageFooter.adsense.iframe.adFrame.visitWebsite": "//*[@class='adD']//span[normalize-space()='Visit Website']",
		"404Page.PageTitle": "//div[@class='col-md-6']/h1",
		"404Page.Heroimg": "//div[@class='hero-image col-md-4 col-md-offset-1']/img",
		"404Page.SearchBox": "//div[@class='search-box']",
		"404Page.ColumnHeaders": "//li[@class='col-sm-3 col-xs-6']/h3",
		"404Page.Elements": "//li[@class='col-sm-3 col-xs-6']/ol/li/a",
		"404Page.CategoryHome.BreadCrumb": "//li[@class='c-breadcrumb__item--curr-pg']",
		"404Page.CategoryListing.Filter.BreadCrumb": "//li[@class='c-breadcrumb__item--filter']//a/span|//li[@class='c-breadcrumb__item']|//li[contains(@class,'c-breadcrumb__item')][2]",
		"404Page.Directory.BreadCrumb": "//li[contains(@class,'c-breadcrumb__item')][2]",
		"404Page.ourEditorchoice.Title": "//div[@class='more-products row']/h3/span[2]",
		"404Page.ourEditorchoice.productLeftArrow": "//button[@class='c-product-carousel__slide-left js-slide-left']",
		"404Page.ourEditorchoice.productRightArrow": "//button[@class='c-product-carousel__slide-right js-slide-right']",
		"NoResult.Title": "//div[@class='no-results-box']//h1",
		"NoResult.searchButton": "//form[contains(@class,'kws search-box')]//button//i",
		"NoResult.searchText": "//form[contains(@class,'kws search-box')]//input",
		"NoSearchResult.Elements": "//div[@class='col-xs-6 col-sm-4 col-md-3']//a",
		"NoSearchResult.ColumnHeaders": "//div[contains(@class,'col-xs-6 col-sm-4')]//h4",
		"NoSearchResult.editorchoiceTitle": "//h2[@class='ec-products__title']//span",
		"NoSearchResult.productcount": "//div[@class='c-product-card__inner clearfix']",
		"NoSearchResult.productHoverbutton": "(//button[@class='c-product-card__hover-trigger js-hover-trigger']//i)[1]",
		"NoSearchResult.producPrice": "(//div[@class='c-product-card__price'])[1]",
		"NoSearchResult.productName": "(//div[@class='c-product-card__name'])[1]//a[1]",
		"NoSearchResult.productBrand": "(//h2[@class='c-product-card__brand js-keyboard-target'])[1]",
		"iiPage.Skyward.ArticleLinks": "//div[contains(@class,'seo-content-card js-seo-content-card col-sm-')]",
		"iiPage.Skyward.ArticleImgLinks": "//div[contains(@class,'content-image c-seo-content-card')]/img",
		"iiPage.Skyward.ArticleCategoryNameLinks": "//div[contains(@class,'seo-content-card js-seo-content-card col-sm-')]//h3/span",
		"iiPage.Skyward.ArticleTitleLinks": "//div[contains(@class,'content-title c-seo-content-card__title')]",
		"iiPage.Skyward.ArticleContentLinks": "//div[contains(@class,'content-copy c-seo-content-card')]",
		"iiPage.Skyward.PageTitle": "//div[@id='content-item']/h1",
		"iiPage.Pagination.LeftArrow": "//ul[@class='pagination']//i[@class='fa fa-chevron-left']",
		"iiPage.Pagination.RightArrow": "//ul[@class='pagination']//i[@class='fa fa-chevron-right']",
		"iiPage.Pagination.Page2": "//ul[@class='pagination']/li[3]/a",
		"iiPage.ourEditorchoice.Title": "//div[@class='more-products row']/h3/span",
		"iiPage.breadCrumbTitle.notLastNode": "//li[@class='c-breadcrumb__item']//a[normalize-space()=\"%s\"]",
		"iiPage.LeftNavigation.Title": "//h3[contains(text(),'Shop By')]",
		"iiPage.H1.Title": "//div[@id='content']//h1",
		"iiPage.breadCrumbTitle.CategoryName": "//li[@class='c-breadcrumb__item']//*",
		"iiPage.breadCrumbTitle.LastNode": "//li[@class='c-breadcrumb__item--curr-pg']",
		"SlideShow.herotitle": "//h1[@itemprop='headline']",
		"SlideShow.heroimage": "//div[contains(@class, 'header-image')]//img",
		"SlideShow.herodescription": "//*[@itemprop='description']",
		"SlideShow.heroarea.author": "//*[@itemprop='author']/span",
		"SlideShow.heroarea.socialicons": "//*[@class='jssocials-shares']",
		"SlideShow.sections": "//div[@class='section row']",
		"SlideShow.section.image": "//div[@class='section row']/div[contains(@class, 'section-image')]//img",
		"StoryPage.section.body":"//div[@class='section row']/div[contains(@class, 'section-body')]",
		"SlideShow.section.sequenceorder": "//div[@class='section row']/div[contains(@class, 'section-image')]//p",
		"SlideShow.section.title": "//div[@class='section row']/div[contains(@class, 'section-image')]/..//h2",
		"SlideShow.section.description": "//div[@class='section row']/div[contains(@class, 'section-body')]/p[1]",
		"SlideShow.section.Shopbutton": "//div[@class='section row']/div[contains(@class, 'section-body')]/a",
		"SlideShow.similarproducts.section": "//div[@class='c-product-carousel__viewport']",
		"SlideShow.similarproducts.productcard": "//div[@class='c-product-carousel__viewport']/div/div//div[@class='product-info']",
		"SlideShow.similarproducts.producttitle": "//div[@class='c-product-carousel__viewport']/div/div//div[@class='product-info']/a[2]",
		"SlideShow.similarproducts.title": "//*[@class='section-products__heading']/span",
		"SlideShow.similarproducts.leftarrow": "//i[@class='fa fa-chevron-left']",
		"SlideShow.similarproducts.rightarrow": "//i[@class='fa fa-chevron-right']",
		"SlideShow.similarproducts.ShopAllbtn": "//*[@class='btn btn-primary-action shop-all']",
		"Shoppingguide.sections": "//div[@class='section row']",
		"Shoppingguide.section.title": "//div[@class='section row']//h2",
		"Shoppingguide.section.description": "//div[@class='section row']//div[contains(@class, 'section-body')]/p[1]",
		"SiteMap.MobileTitle": "//div[@class='row']//h1",
		"SiteMap.BrandIndex": "//ul[@class='brand-index']//li",
		"SiteMap.Stores": "//ul[@class='stores']//li",
		"Directory.Topstores.title": "//div/h2",
		"Sitemap.site-block.Headers": "//div[@id='sitemap']//h2/a",
		"Sitemap.LatestArticles": "//td[@class='latest-articles']//a",
		"Sitemap.Category.SubHeaders": "//div[@class='site-block']//p[@class='indent1'][1]/a",
		"Sitemap.breadCrumbTitle.notLastNode": "//li[@class='c-breadcrumb__item']//a",
		"Sitemap.brandIndex.dropdown": "//select[@id='brand-index']",
		"Sitemap.brandIndex.dropdownList": "//select[@class='brand-index-menu']//option",
		"Sitemap.viewStores.link": "//a[@class='store-link']",
		"Sitemap.latestArticle.dropdown": "//select[@class='articles']",
		"Sitemap.latestArticle.dropdownList": "//select[@class='articles']//option",
		"SiteMap.Title": "//div[@class='row']/h1[text()='Sitemap']",
		"CategoryHomePage.Navigation": "(//div[@class='title']//a)[1]"
	
	}
}
